{
  "project_info": {
    "project_number": "1074641171421",
    "firebase_url": "https://chat-ya-1519535467093.firebaseio.com",
    "project_id": "chat-ya-1519535467093",
    "storage_bucket": "chat-ya-1519535467093.appspot.com"
  },
  "client": [
    {
      "client_info": {
        "mobilesdk_app_id": "1:1074641171421:android:73a8cdbd16890e87",
        "android_client_info": {
          "package_name": "com.rsypj.chatya"
        }
      },
      "oauth_client": [
        {
          "client_id": "1074641171421-0pni719ejp3712881gcitshq75bs0j1c.apps.googleusercontent.com",
          "client_type": 3
        },
        {
          "client_id": "1074641171421-trj2h29eb8f7kkt436uvngi5fkrjcufg.apps.googleusercontent.com",
          "client_type": 3
        },
        {
          "client_id": "1074641171421-8djuq9jlt3qcb2tbo2ks4113vhs1q36i.apps.googleusercontent.com",
          "client_type": 1,
          "android_info": {
            "package_name": "com.rsypj.chatya",
            "certificate_hash": "b7f387da0611aca76d26a8bcddef950586500867"
          }
        }
      ],
      "api_key": [
        {
          "current_key": "AIzaSyBmx83DqxXDZ9TQ0PuZQaf2BWWO0Iw2HDg"
        }
      ],
      "services": {
        "analytics_service": {
          "status": 1
        },
        "appinvite_service": {
          "status": 2,
          "other_platform_oauth_client": [
            {
              "client_id": "1074641171421-0pni719ejp3712881gcitshq75bs0j1c.apps.googleusercontent.com",
              "client_type": 3
            }
          ]
        },
        "ads_service": {
          "status": 2
        }
      }
    }
  ],
  "configuration_version": "1"
}